<?xml version="1.0" encoding="utf-8"?>
<!-- Generator: Adobe Illustrator 26.0.1, SVG Export Plug-In . SVG Version: 6.00 Build 0)  -->
<svg version="1.1" id="Layer_1" xmlns="http://www.w3.org/2000/svg" xmlns:xlink="http://www.w3.org/1999/xlink" x="0px" y="0px"
	 viewBox="0 0 2834 1382" style="enable-background:new 0 0 2834 1382;" xml:space="preserve">
<style type="text/css">
	.st0{fill:#230944;stroke:#000000;stroke-miterlimit:10;}
</style>
<path class="st0" d="M99,1382h2735c0,0-254.27-545.15-1358.24-541.84C1475.76,840.16,603.98,815.34,99,1382z"/>
<rect x="954.5" y="378.5" class="st0" width="925" height="19"/>
</svg>
