<?xml version="1.0" encoding="utf-8"?>
<!-- Generator: Adobe Illustrator 26.0.1, SVG Export Plug-In . SVG Version: 6.00 Build 0)  -->
<svg version="1.1" id="Layer_1" xmlns="http://www.w3.org/2000/svg" xmlns:xlink="http://www.w3.org/1999/xlink" x="0px" y="0px"
	 viewBox="0 0 1920 458" style="enable-background:new 0 0 1920 458;" xml:space="preserve">
<style type="text/css">
	.st0{fill:url(#SVGID_1_);}
	.st1{fill:#FFFFFF;}
	.st2{fill:url(#SVGID_00000081621418597323067570000016669233430765441978_);}
	.st3{fill:url(#SVGID_00000074411734759113190330000017538547854266477232_);}
	.st4{fill:url(#SVGID_00000165232887085134427260000018306969427272145550_);}
</style>
<g>
	
		<linearGradient id="SVGID_1_" gradientUnits="userSpaceOnUse" x1="294.526" y1="172.1573" x2="293.2083" y2="354.6926" gradientTransform="matrix(1 0 0 -1 0 460)">
		<stop  offset="0" style="stop-color:#FFFFFF"/>
		<stop  offset="0.1649" style="stop-color:#D4CFDA;stop-opacity:0.967"/>
		<stop  offset="0.4707" style="stop-color:#897B9B;stop-opacity:0.9059"/>
		<stop  offset="0.7214" style="stop-color:#523E6C;stop-opacity:0.8557"/>
		<stop  offset="0.9041" style="stop-color:#30174F;stop-opacity:0.8192"/>
		<stop  offset="1" style="stop-color:#230944;stop-opacity:0.8"/>
	</linearGradient>
	<path class="st0" d="M126.1,289.7c-21.9,0-39.7-16-39.7-35.6V126c0-19.6,17.8-35.6,39.7-35.6h335.4c21.9,0,39.6,16,39.6,35.6v128
		c0,19.6-17.8,35.6-39.6,35.6H126.1z"/>
	<path class="st1" d="M461.5,90.9c21.6,0,39.1,15.8,39.1,35.1v128c0,19.4-17.6,35.1-39.1,35.1H126.1c-21.6,0-39.2-15.8-39.2-35.1
		V126c0-19.4,17.6-35.1,39.2-35.1L461.5,90.9 M461.5,90H126.1c-22.2,0-40.2,16.1-40.2,36v128c0,19.9,18,36,40.2,36h335.4
		c22.2,0,40.1-16.1,40.1-36V126C501.7,106.1,483.7,90,461.5,90L461.5,90z"/>
</g>
<path class="st1" d="M154.5,244L154.5,244c-22.4,0-40.5-18.1-40.5-40.5v-4c0-22.4,18.1-40.5,40.5-40.5l0,0
	c22.4,0,40.5,18.1,40.5,40.5v4C195,225.9,176.9,244,154.5,244z"/>
<image style="overflow:visible;enable-background:new    ;" width="72" height="72" xlink:href="D79ED16F.png"  transform="matrix(0.75 0 0 0.75 127.2739 174.0382)">
</image>
<path class="st1" d="M247.5,244L247.5,244c-22.4,0-40.5-18.1-40.5-40.5v-4c0-22.4,18.1-40.5,40.5-40.5l0,0
	c22.4,0,40.5,18.1,40.5,40.5v4C288,225.9,269.9,244,247.5,244z"/>
<image style="overflow:visible;enable-background:new    ;" width="587" height="330" xlink:href="D79ED16A.png"  transform="matrix(0.2044 0 0 0.197 188 174)">
</image>
<path class="st1" d="M341.5,244L341.5,244c-22.4,0-40.5-18.1-40.5-40.5v-4c0-22.4,18.1-40.5,40.5-40.5l0,0
	c22.4,0,40.5,18.1,40.5,40.5v4C382,225.9,363.9,244,341.5,244z"/>
<path class="st1" d="M434.5,240L434.5,240c-22.4,0-40.5-18.1-40.5-40.5v-4c0-22.4,18.1-40.5,40.5-40.5l0,0
	c22.4,0,40.5,18.1,40.5,40.5v4C475,221.9,456.9,240,434.5,240z"/>
<image style="overflow:visible;enable-background:new    ;" width="72" height="72" xlink:href="D79ED169.png"  transform="matrix(0.75 0 0 0.8056 409 169)">
</image>
<g>
	
		<linearGradient id="SVGID_00000099627925042011247640000008671559602398122675_" gradientUnits="userSpaceOnUse" x1="731.6168" y1="70.6105" x2="729.6255" y2="346.4579" gradientTransform="matrix(1 0 0 -1 0 460)">
		<stop  offset="0" style="stop-color:#FFFFFF"/>
		<stop  offset="0.1649" style="stop-color:#D4CFDA;stop-opacity:0.967"/>
		<stop  offset="0.4707" style="stop-color:#897B9B;stop-opacity:0.9059"/>
		<stop  offset="0.7214" style="stop-color:#523E6C;stop-opacity:0.8557"/>
		<stop  offset="0.9041" style="stop-color:#30174F;stop-opacity:0.8192"/>
		<stop  offset="1" style="stop-color:#230944;stop-opacity:0.8"/>
	</linearGradient>
	<path style="fill:url(#SVGID_00000099627925042011247640000008671559602398122675_);" d="M562.8,392.7c-21.9,0-39.7-16.6-39.7-37.1
		V127.6c0-20.5,17.8-37.1,39.7-37.1h335.4c21.9,0,39.7,16.6,39.7,37.1v228.1c0,20.5-17.8,37.1-39.7,37.1H562.8z"/>
	<path class="st1" d="M898.3,90.9c21.6,0,39.2,16.4,39.2,36.6v228.1c0,20.2-17.6,36.6-39.2,36.6H562.8c-21.6,0-39.2-16.4-39.2-36.6
		V127.6c0-20.2,17.6-36.6,39.2-36.6L898.3,90.9 M898.3,90H562.8c-22.2,0-40.2,16.8-40.2,37.6v228.1c0,20.7,18,37.6,40.2,37.6h335.4
		c22.2,0,40.2-16.8,40.2-37.6V127.6C938.4,106.8,920.4,90,898.3,90L898.3,90z"/>
</g>
<path class="st1" d="M591.5,241L591.5,241c-22.4,0-40.5-18.1-40.5-40.5v-4c0-22.4,18.1-40.5,40.5-40.5l0,0
	c22.4,0,40.5,18.1,40.5,40.5v4C632,222.9,613.9,241,591.5,241z"/>
<image style="overflow:visible;enable-background:new    ;" width="72" height="72" xlink:href="D79ED176.png"  transform="matrix(1.0833 0 0 1.0278 553 164)">
</image>
<path class="st1" d="M782.5,239L782.5,239c-22.4,0-40.5-18.1-40.5-40.5v-4c0-22.4,18.1-40.5,40.5-40.5l0,0
	c22.4,0,40.5,18.1,40.5,40.5v4C823,220.9,804.9,239,782.5,239z"/>
<path class="st1" d="M687.5,240L687.5,240c-22.4,0-40.5-18.1-40.5-40.5v-4c0-22.4,18.1-40.5,40.5-40.5l0,0
	c22.4,0,40.5,18.1,40.5,40.5v4C728,221.9,709.9,240,687.5,240z"/>
<image style="overflow:visible;enable-background:new    ;" width="72" height="72" xlink:href="D79ED179.png"  transform="matrix(1.1111 0 0 1.0278 648 166)">
</image>
<image style="overflow:visible;enable-background:new    ;" width="398" height="208" xlink:href="D79ED17A.png"  transform="matrix(0.1986 0 0 0.2046 743 171)">
</image>
<path class="st1" d="M875.5,240L875.5,240c-22.4,0-40.5-18.1-40.5-40.5v-4c0-22.4,18.1-40.5,40.5-40.5l0,0
	c22.4,0,40.5,18.1,40.5,40.5v4C916,221.9,897.9,240,875.5,240z"/>
<image style="overflow:visible;enable-background:new    ;" width="72" height="72" xlink:href="D79ED178.png"  transform="matrix(0.7946 0 0 0.8056 846.8949 167.5)">
</image>
<image style="overflow:visible;enable-background:new    ;" width="72" height="72" xlink:href="D79ED17D.png"  transform="matrix(4.690000e-02 0 0 4.690000e-02 485.5291 274.6501)">
</image>
<g>
	
		<linearGradient id="SVGID_00000153665181416480038770000005407541564129051029_" gradientUnits="userSpaceOnUse" x1="1166.3232" y1="70.5954" x2="1164.3386" y2="345.5376" gradientTransform="matrix(1 0 0 -1 0 460)">
		<stop  offset="0" style="stop-color:#FFFFFF"/>
		<stop  offset="0.1649" style="stop-color:#D4CFDA;stop-opacity:0.967"/>
		<stop  offset="0.4707" style="stop-color:#897B9B;stop-opacity:0.9059"/>
		<stop  offset="0.7214" style="stop-color:#523E6C;stop-opacity:0.8557"/>
		<stop  offset="0.9041" style="stop-color:#30174F;stop-opacity:0.8192"/>
		<stop  offset="1" style="stop-color:#230944;stop-opacity:0.8"/>
	</linearGradient>
	<path style="fill:url(#SVGID_00000153665181416480038770000005407541564129051029_);" d="M997.5,392.7c-21.9,0-39.7-16.6-39.7-37.1
		V128.6c0-20.5,17.8-37.1,39.7-37.1H1333c21.9,0,39.7,16.6,39.7,37.1v227.1c0,20.5-17.8,37.1-39.7,37.1H997.5z"/>
	<path class="st1" d="M1333,91.9c21.6,0,39.2,16.4,39.2,36.6v227.1c0,20.2-17.6,36.6-39.2,36.6H997.5c-21.6,0-39.2-16.4-39.2-36.6
		V128.6c0-20.2,17.6-36.6,39.2-36.6L1333,91.9 M1333,91H997.5c-22.2,0-40.2,16.8-40.2,37.6v227.1c0,20.7,18,37.6,40.2,37.6H1333
		c22.2,0,40.2-16.8,40.2-37.6V128.6C1373.1,107.8,1355.2,91,1333,91L1333,91z"/>
</g>
<path class="st1" d="M1026.5,240L1026.5,240c-22.4,0-40.5-18.1-40.5-40.5l0,0c0-22.4,18.1-40.5,40.5-40.5l0,0
	c22.4,0,40.5,18.1,40.5,40.5l0,0C1067,221.9,1048.9,240,1026.5,240z"/>
<image style="overflow:visible;enable-background:new    ;" width="512" height="512" xlink:href="D79ED17E.png"  transform="matrix(0.1406 0 0 0.1309 991 166)">
</image>
<path class="st1" d="M1119.5,241L1119.5,241c-22.4,0-40.5-18.1-40.5-40.5l0,0c0-22.4,18.1-40.5,40.5-40.5l0,0
	c22.4,0,40.5,18.1,40.5,40.5l0,0C1160,222.9,1141.9,241,1119.5,241z"/>
<image style="overflow:visible;enable-background:new    ;" width="72" height="72" xlink:href="29F444FD.png"  transform="matrix(0.8194 0 0 0.8194 1091 170)">
</image>
<path class="st1" d="M1211.5,238L1211.5,238c-22.4,0-40.5-18.1-40.5-40.5l0,0c0-22.4,18.1-40.5,40.5-40.5l0,0
	c22.4,0,40.5,18.1,40.5,40.5l0,0C1252,219.9,1233.9,238,1211.5,238z"/>
<image style="overflow:visible;enable-background:new    ;" width="512" height="512" xlink:href="29F444FE.png"  transform="matrix(0.125 0 0 0.125 1177 166)">
</image>
<path class="st1" d="M1306.5,238L1306.5,238c-22.4,0-40.5-18.1-40.5-40.5l0,0c0-22.4,18.1-40.5,40.5-40.5l0,0
	c22.4,0,40.5,18.1,40.5,40.5l0,0C1347,219.9,1328.9,238,1306.5,238z"/>
<image style="overflow:visible;enable-background:new    ;" width="512" height="512" xlink:href="29F444FC.png"  transform="matrix(0.1287 0 0 0.1257 1273 165)">
</image>
<g>
	
		<linearGradient id="SVGID_00000129902111086741607480000011538366880557222292_" gradientUnits="userSpaceOnUse" x1="1601.147" y1="164.3896" x2="1599.7712" y2="354.9797" gradientTransform="matrix(1 0 0 -1 0 460)">
		<stop  offset="0" style="stop-color:#FFFFFF"/>
		<stop  offset="0.1649" style="stop-color:#D4CFDA;stop-opacity:0.967"/>
		<stop  offset="0.4707" style="stop-color:#897B9B;stop-opacity:0.9059"/>
		<stop  offset="0.7214" style="stop-color:#523E6C;stop-opacity:0.8557"/>
		<stop  offset="0.9041" style="stop-color:#30174F;stop-opacity:0.8192"/>
		<stop  offset="1" style="stop-color:#230944;stop-opacity:0.8"/>
	</linearGradient>
	<path style="fill:url(#SVGID_00000129902111086741607480000011538366880557222292_);" d="M1432.7,297.6
		c-21.9,0-39.7-16.1-39.7-35.9V125.3c0-19.8,17.8-35.9,39.7-35.9h335.4c21.9,0,39.7,16.1,39.7,35.9v136.4
		c0,19.8-17.8,35.9-39.7,35.9H1432.7z"/>
	<path class="st1" d="M1768.1,89.9c21.6,0,39.2,15.9,39.2,35.4v136.4c0,19.5-17.6,35.4-39.2,35.4h-335.4
		c-21.6,0-39.2-15.9-39.2-35.4V125.3c0-19.5,17.6-35.4,39.2-35.4L1768.1,89.9 M1768.1,89h-335.4c-22.2,0-40.2,16.3-40.2,36.3v136.4
		c0,20.1,18,36.3,40.2,36.3h335.4c22.2,0,40.2-16.3,40.2-36.3V125.3C1808.3,105.3,1790.3,89,1768.1,89L1768.1,89z"/>
</g>
<path class="st1" d="M1460.5,239L1460.5,239c-22.4,0-40.5-18.1-40.5-40.5l0,0c0-22.4,18.1-40.5,40.5-40.5l0,0
	c22.4,0,40.5,18.1,40.5,40.5l0,0C1501,220.9,1482.9,239,1460.5,239z"/>
<image style="overflow:visible;enable-background:new    ;" width="512" height="512" xlink:href="29F444E4.png"  transform="matrix(0.1113 0 0 0.1074 1433 171)">
</image>
<path class="st1" d="M1552.5,238L1552.5,238c-22.4,0-40.5-18.1-40.5-40.5l0,0c0-22.4,18.1-40.5,40.5-40.5l0,0
	c22.4,0,40.5,18.1,40.5,40.5l0,0C1593,219.9,1574.9,238,1552.5,238z"/>
<image style="overflow:visible;enable-background:new    ;" width="512" height="512" xlink:href="29F444E1.png"  transform="matrix(0.1195 0 0 0.1226 1522 166)">
</image>
<path class="st1" d="M1644.5,238L1644.5,238c-22.4,0-40.5-18.1-40.5-40.5l0,0c0-22.4,18.1-40.5,40.5-40.5l0,0
	c22.4,0,40.5,18.1,40.5,40.5l0,0C1685,219.9,1666.9,238,1644.5,238z"/>
<image style="overflow:visible;enable-background:new    ;" width="512" height="512" xlink:href="29F444E2.png"  transform="matrix(0.1152 0 0 0.1152 1615 168)">
</image>
<path class="st1" d="M1120.5,333L1120.5,333c-22.4,0-40.5-18.1-40.5-40.5l0,0c0-22.4,18.1-40.5,40.5-40.5l0,0
	c22.4,0,40.5,18.1,40.5,40.5l0,0C1161,314.9,1142.9,333,1120.5,333z"/>
<image style="overflow:visible;enable-background:new    ;" width="256" height="256" xlink:href="29F444E3.png"  transform="matrix(0.2319 0 0 0.2233 1090 264)">
</image>
<path class="st1" d="M635.8,337.5L635.8,337.5c-22.4,0-40.5-18.1-40.5-40.5l0,0c0-22.4,18.1-40.5,40.5-40.5l0,0
	c22.4,0,40.5,18.1,40.5,40.5l0,0C676.3,319.4,658.2,337.5,635.8,337.5z"/>
<image style="overflow:visible;enable-background:new    ;" width="1067" height="1554" xlink:href="29F444EA.png"  transform="matrix(4.590000e-02 0 0 4.250000e-02 613.127 264)">
</image>
<path class="st1" d="M733,336.7L733,336.7c-22.4,0-40.5-18.1-40.5-40.5l0,0c0-22.4,18.1-40.5,40.5-40.5l0,0
	c22.4,0,40.5,18.1,40.5,40.5l0,0C773.5,318.6,755.4,336.7,733,336.7z"/>
<image style="overflow:visible;enable-background:new    ;" width="160" height="160" xlink:href="29F444ED.png"  transform="matrix(0.4625 0 0 0.4437 696.0287 261.7016)">
</image>
<path class="st1" d="M1211.5,334L1211.5,334c-22.4,0-40.5-18.1-40.5-40.5l0,0c0-22.4,18.1-40.5,40.5-40.5l0,0
	c22.4,0,40.5,18.1,40.5,40.5l0,0C1252,315.9,1233.9,334,1211.5,334z"/>
<image style="overflow:visible;enable-background:new    ;" width="512" height="512" xlink:href="29F444EF.png"  transform="matrix(0.1172 0 0 0.1133 1182 262)">
</image>
<path class="st1" d="M1736.5,240L1736.5,240c-22.4,0-40.5-18.1-40.5-40.5l0,0c0-22.4,18.1-40.5,40.5-40.5l0,0
	c22.4,0,40.5,18.1,40.5,40.5l0,0C1777,221.9,1758.9,240,1736.5,240z"/>
<image style="overflow:visible;enable-background:new    ;" width="261" height="243" xlink:href="29F44503.png"  transform="matrix(0.2414 0 0 0.2387 1705 170)">
</image>
<image style="overflow:visible;" width="512" height="512" xlink:href="../../../../../Users/jadea/Downloads/vue.png"  transform="matrix(0.1316 0 0 0.1289 307.8113 174)">
</image>
<path class="st1" d="M830.3,335.9L830.3,335.9c-22.4,0-40.5-18.1-40.5-40.5l0,0c0-22.4,18.1-40.5,40.5-40.5l0,0
	c22.4,0,40.5,18.1,40.5,40.5l0,0C870.8,317.7,852.7,335.9,830.3,335.9z"/>
<image style="overflow:visible;" width="512" height="512" xlink:href="../../../../../Users/jadea/Downloads/tailwind.png"  transform="matrix(0.1438 0 0 0.1491 793.4848 254.5469)">
</image>
</svg>
